
  /$$$$$$                      /$$                              /$$$$$           /$$
 /$$__  $$                    |__/                             |__  $$          | $$
| $$  \__/  /$$$$$$   /$$$$$$  /$$ /$$$$$$$   /$$$$$$             | $$  /$$$$$$ | $$   /$$  /$$$$$$   /$$$$$$   /$$$$$$   /$$$$$$
|  $$$$$$  /$$__  $$ /$$__  $$| $$| $$__  $$ /$$__  $$            | $$ /$$__  $$| $$  /$$/ /$$__  $$ |____  $$ /$$__  $$ /$$__  $$
 \____  $$| $$  \ $$| $$  \__/| $$| $$  \ $$| $$  \ $$       /$$  | $$| $$  \ $$| $$$$$$/ | $$$$$$$$  /$$$$$$$| $$  \ $$| $$  \ $$
 /$$  \ $$| $$  | $$| $$      | $$| $$  | $$| $$  | $$      | $$  | $$| $$  | $$| $$_  $$ | $$_____/ /$$__  $$| $$  | $$| $$  | $$
|  $$$$$$/| $$$$$$$/| $$      | $$| $$  | $$|  $$$$$$$      |  $$$$$$/|  $$$$$$/| $$ \  $$|  $$$$$$$|  $$$$$$$| $$$$$$$/| $$$$$$$/
 \______/ | $$____/ |__/      |__/|__/  |__/ \____  $$       \______/  \______/ |__/  \__/ \_______/ \_______/| $$____/ | $$____/
          | $$                               /$$  \ $$                                                        | $$      | $$
          | $$                              |  $$$$$$/                                                        | $$      | $$
          |__/                               \______/                                                         |__/      |__/
